%YAML 1.1
%TAG !u! tag:unity3d.com,2011:
--- !u!21 &2100000
Material:
  serializedVersion: 6
  m_ObjectHideFlags: 0
  m_CorrespondingSourceObject: {fileID: 0}
  m_PrefabInstance: {fileID: 0}
  m_PrefabAsset: {fileID: 0}
  m_Name: M_00116_ethica_H_Alpha
  m_Shader: {fileID: 4800000, guid: 3b0010faad48f314481a0cda14e1b802, type: 3}
  m_ShaderKeywords: 
  m_LightmapFlags: 5
  m_EnableInstancingVariants: 0
  m_DoubleSidedGI: 0
  m_CustomRenderQueue: -1
  stringTagMap: {}
  disabledShaderPasses: []
  m_SavedProperties:
    serializedVersion: 3
    m_TexEnvs:
    - _MatrixTex:
        m_Texture: {fileID: 2800000, guid: d892d9ff5d9418c41bcc53b4a4d120d5, type: 3}
        m_Scale: {x: 1, y: 1}
        m_Offset: {x: 0, y: 0}
    - _alphaTex:
        m_Texture: {fileID: 2800000, guid: 7580fba099aeb594584439bb2328cc9b, type: 3}
        m_Scale: {x: 1, y: 1}
        m_Offset: {x: 0, y: 0}
    - _matToon:
        m_Texture: {fileID: 2800000, guid: e840a4e5ee16fa24ba1d3dd6590480f7, type: 3}
        m_Scale: {x: 1, y: 1}
        m_Offset: {x: 0, y: 0}
    m_Floats:
    - _Cutoff: 0.5
    - _MatrixWidth: 4
    - _Threshold: 1
    m_Colors: []
  m_BuildTextureStacks: []
